{
  "api_id": "worldbank_kr_gdp_current_usd",
  "fetched_utc": "2026-04-26T10:55:09.781523Z",
  "source_url": "https://api.worldbank.org/v2/country/KR/indicator/NY.GDP.MKTP.CD?per_page=5&format=json",
  "http_status": 200,
  "response_json": [
    {
      "page": 1,
      "pages": 14,
      "per_page": 5,
      "total": 66,
      "sourceid": "2",
      "lastupdated": "2026-04-08"
    },
    [
      {
        "indicator": {
          "id": "NY.GDP.MKTP.CD",
          "value": "GDP (current US$)"
        },
        "country": {
          "id": "KR",
          "value": "Korea, Rep."
        },
        "countryiso3code": "KOR",
        "date": "2025",
        "value": null,
        "unit": "",
        "obs_status": "",
        "decimal": 0
      },
      {
        "indicator": {
          "id": "NY.GDP.MKTP.CD",
          "value": "GDP (current US$)"
        },
        "country": {
          "id": "KR",
          "value": "Korea, Rep."
        },
        "countryiso3code": "KOR",
        "date": "2024",
        "value": 1875388209406.8,
        "unit": "",
        "obs_status": "",
        "decimal": 0
      },
      {
        "indicator": {
          "id": "NY.GDP.MKTP.CD",
          "value": "GDP (current US$)"
        },
        "country": {
          "id": "KR",
          "value": "Korea, Rep."
        },
        "countryiso3code": "KOR",
        "date": "2023",
        "value": 1844800934391.54,
        "unit": "",
        "obs_status": "",
        "decimal": 0
      },
      {
        "indicator": {
          "id": "NY.GDP.MKTP.CD",
          "value": "GDP (current US$)"
        },
        "country": {
          "id": "KR",
          "value": "Korea, Rep."
        },
        "countryiso3code": "KOR",
        "date": "2022",
        "value": 1799363116866.52,
        "unit": "",
        "obs_status": "",
        "decimal": 0
      },
      {
        "indicator": {
          "id": "NY.GDP.MKTP.CD",
          "value": "GDP (current US$)"
        },
        "country": {
          "id": "KR",
          "value": "Korea, Rep."
        },
        "countryiso3code": "KOR",
        "date": "2021",
        "value": 1942313560965.9,
        "unit": "",
        "obs_status": "",
        "decimal": 0
      }
    ]
  ]
}
