{
  "api_id": "worldbank_merch_exports_kr",
  "fetched_utc": "2026-04-26T10:55:11.416008Z",
  "source_url": "https://api.worldbank.org/v2/country/KR/indicator/NE.EXP.GNFS.CD?per_page=5&format=json",
  "http_status": 200,
  "response_json": [
    {
      "page": 1,
      "pages": 14,
      "per_page": 5,
      "total": 66,
      "sourceid": "2",
      "lastupdated": "2026-04-08"
    },
    [
      {
        "indicator": {
          "id": "NE.EXP.GNFS.CD",
          "value": "Exports of goods and services (current US$)"
        },
        "country": {
          "id": "KR",
          "value": "Korea, Rep."
        },
        "countryiso3code": "KOR",
        "date": "2025",
        "value": null,
        "unit": "",
        "obs_status": "",
        "decimal": 0
      },
      {
        "indicator": {
          "id": "NE.EXP.GNFS.CD",
          "value": "Exports of goods and services (current US$)"
        },
        "country": {
          "id": "KR",
          "value": "Korea, Rep."
        },
        "countryiso3code": "KOR",
        "date": "2024",
        "value": 831889172091.318,
        "unit": "",
        "obs_status": "",
        "decimal": 0
      },
      {
        "indicator": {
          "id": "NE.EXP.GNFS.CD",
          "value": "Exports of goods and services (current US$)"
        },
        "country": {
          "id": "KR",
          "value": "Korea, Rep."
        },
        "countryiso3code": "KOR",
        "date": "2023",
        "value": 762299062736.35,
        "unit": "",
        "obs_status": "",
        "decimal": 0
      },
      {
        "indicator": {
          "id": "NE.EXP.GNFS.CD",
          "value": "Exports of goods and services (current US$)"
        },
        "country": {
          "id": "KR",
          "value": "Korea, Rep."
        },
        "countryiso3code": "KOR",
        "date": "2022",
        "value": 815019022384.453,
        "unit": "",
        "obs_status": "",
        "decimal": 0
      },
      {
        "indicator": {
          "id": "NE.EXP.GNFS.CD",
          "value": "Exports of goods and services (current US$)"
        },
        "country": {
          "id": "KR",
          "value": "Korea, Rep."
        },
        "countryiso3code": "KOR",
        "date": "2021",
        "value": 764083221345.796,
        "unit": "",
        "obs_status": "",
        "decimal": 0
      }
    ]
  ]
}
